{"count": 200, "next": "https://cryptopanic.com/api/free/v1/posts/?auth_token=ea4c36b0fb9fbf1535ca312eb97d3b89a5a1e117&currencies=BTC&filter=rising&page=2", "previous": null, "results": [{"kind": "news", "domain": "coinpaprika.com", "votes": {"negative": 0, "positive": 10, "important": 8, "liked": 9, "disliked": 0, "lol": 0, "toxic": 0, "saved": 6, "comments": 0}, "source": {"title": "coinpaprika", "region": "en", "domain": "coinpaprika.com", "path": null, "type": "feed"}, "title": "Bitcoin Hits Record High: $107,699 \u2013 $110K Next?", "published_at": "2024-12-17T11:17:32Z", "slug": "Bitcoin-Hits-Record-High-107699-110K-Next", "currencies": [{"code": "BTC", "title": "Bitcoin", "slug": "bitcoin", "url": "https://cryptopanic.com/news/bitcoin/"}], "id": 20416517, "url": "https://cryptopanic.com/news/20416517/Bitcoin-Hits-Record-High-107699-110K-Next", "created_at": "2024-12-17T11:17:32Z"}, {"kind": "media", "domain": "youtube.com", "votes": {"negative": 2, "positive": 2, "important": 1, "liked": 1, "disliked": 3, "lol": 3, "toxic": 0, "saved": 1, "comments": 0}, "source": {"title": "The Modern Investor", "region": "en", "domain": "youtube.com", "path": null, "type": "media"}, "title": "Ripple XRP Is Going To $100 In 2025 Bitcoin And The Cryptocurrency Market Are ABOUT TO SKYROCKET", "published_at": "2024-12-17T09:30:05Z", "slug": "Ripple-XRP-Is-Going-To-100-In-2025-Bitcoin-And-The-Cryptocurrency-Market-Are-ABOUT-TO-SKYROCKET", "currencies": [{"code": "BTC", "title": "Bitcoin", "slug": "bitcoin", "url": "https://cryptopanic.com/news/bitcoin/"}, {"code": "XRP", "title": "XRP", "slug": "ripple", "url": "https://cryptopanic.com/news/ripple/"}], "id": 20416059, "url": "https://cryptopanic.com/news/20416059/Ripple-XRP-Is-Going-To-100-In-2025-Bitcoin-And-The-Cryptocurrency-Market-Are-ABOUT-TO-SKYROCKET", "created_at": "2024-12-17T09:30:05Z"}, {"kind": "news", "domain": "coinpaprika.com", "votes": {"negative": 0, "positive": 7, "important": 7, "liked": 7, "disliked": 0, "lol": 0, "toxic": 0, "saved": 6, "comments": 0}, "source": {"title": "coinpaprika", "region": "en", "domain": "coinpaprika.com", "path": null, "type": "feed"}, "title": "Riot Platforms Buys $69M in Bitcoin, Hits 17,429 BTC", "published_at": "2024-12-17T08:51:36Z", "slug": "Riot-Platforms-Buys-69M-in-Bitcoin-Hits-17429-BTC", "currencies": [{"code": "BTC", "title": "Bitcoin", "slug": "bitcoin", "url": "https://cryptopanic.com/news/bitcoin/"}], "id": 20415929, "url": "https://cryptopanic.com/news/20415929/Riot-Platforms-Buys-69M-in-Bitcoin-Hits-17429-BTC", "created_at": "2024-12-17T08:51:36Z"}, {"kind": "news", "domain": "decrypt.co", "votes": {"negative": 0, "positive": 7, "important": 5, "liked": 6, "disliked": 0, "lol": 0, "toxic": 0, "saved": 1, "comments": 4}, "source": {"title": "Decrypt", "region": "en", "domain": "decrypt.co", "path": null, "type": "feed"}, "title": "Bitcoin Jumps to Record Price as Ethereum Hits 3-Year High", "published_at": "2024-12-16T19:33:26Z", "slug": "Bitcoin-Jumps-to-Record-Price-as-Ethereum-Hits-3-Year-High", "currencies": [{"code": "BTC", "title": "Bitcoin", "slug": "bitcoin", "url": "https://cryptopanic.com/news/bitcoin/"}, {"code": "ETH", "title": "Ethereum", "slug": "ethereum", "url": "https://cryptopanic.com/news/ethereum/"}], "id": 20414054, "url": "https://cryptopanic.com/news/20414054/Bitcoin-Jumps-to-Record-Price-as-Ethereum-Hits-3-Year-High", "created_at": "2024-12-16T19:33:26Z"}, {"kind": "news", "domain": "coinpaprika.com", "votes": {"negative": 0, "positive": 21, "important": 13, "liked": 19, "disliked": 0, "lol": 0, "toxic": 0, "saved": 6, "comments": 3}, "source": {"title": "coinpaprika", "region": "en", "domain": "coinpaprika.com", "path": null, "type": "feed"}, "title": "Bitcoin Hits New Record High at $106K", "published_at": "2024-12-16T09:37:44Z", "slug": "Bitcoin-Hits-New-Record-High-at-106K", "currencies": [{"code": "BTC", "title": "Bitcoin", "slug": "bitcoin", "url": "https://cryptopanic.com/news/bitcoin/"}], "id": 20411188, "url": "https://cryptopanic.com/news/20411188/Bitcoin-Hits-New-Record-High-at-106K", "created_at": "2024-12-16T09:37:44Z"}, {"kind": "media", "domain": "youtube.com", "votes": {"negative": 1, "positive": 3, "important": 0, "liked": 1, "disliked": 0, "lol": 0, "toxic": 0, "saved": 1, "comments": 1}, "source": {"title": "The Modern Investor", "region": "en", "domain": "youtube.com", "path": null, "type": "media"}, "title": "The Market Has SHIFTED It's Happening RIGHT NOW Bitcoin Is THE Winner YOU HAVE BEEN WARNED", "published_at": "2024-12-16T09:30:05Z", "slug": "The-Market-Has-SHIFTED-Its-Happening-RIGHT-NOW-Bitcoin-Is-THE-Winner-YOU-HAVE-BEEN-WARNED", "currencies": [{"code": "BTC", "title": "Bitcoin", "slug": "bitcoin", "url": "https://cryptopanic.com/news/bitcoin/"}, {"code": "THE", "title": "Thena", "slug": "thena", "url": "https://cryptopanic.com/news/thena/"}], "id": 20411169, "url": "https://cryptopanic.com/news/20411169/The-Market-Has-SHIFTED-Its-Happening-RIGHT-NOW-Bitcoin-Is-THE-Winner-YOU-HAVE-BEEN-WARNED", "created_at": "2024-12-16T09:30:05Z"}, {"kind": "news", "domain": "coinpaprika.com", "votes": {"negative": 0, "positive": 8, "important": 5, "liked": 7, "disliked": 0, "lol": 0, "toxic": 0, "saved": 3, "comments": 0}, "source": {"title": "coinpaprika", "region": "en", "domain": "coinpaprika.com", "path": null, "type": "feed"}, "title": "MicroStrategy Hints at New Bitcoin Buy After Nasdaq Milestone", "published_at": "2024-12-16T08:34:49Z", "slug": "MicroStrategy-Hints-at-New-Bitcoin-Buy-After-Nasdaq-Milestone", "currencies": [{"code": "BTC", "title": "Bitcoin", "slug": "bitcoin", "url": "https://cryptopanic.com/news/bitcoin/"}], "id": 20410941, "url": "https://cryptopanic.com/news/20410941/MicroStrategy-Hints-at-New-Bitcoin-Buy-After-Nasdaq-Milestone", "created_at": "2024-12-16T08:34:49Z"}, {"kind": "news", "domain": "coinpedia.org", "votes": {"negative": 0, "positive": 9, "important": 4, "liked": 6, "disliked": 0, "lol": 1, "toxic": 0, "saved": 1, "comments": 1}, "source": {"title": "coinpedia", "region": "en", "domain": "coinpedia.org", "path": null, "type": "feed"}, "title": "Donald Trump Bitcoin Reserve Plan Aligns with FASB\u2019s New Crypto Accounting Rules", "published_at": "2024-12-16T05:52:45Z", "slug": "Donald-Trump-Bitcoin-Reserve-Plan-Aligns-with-FASBs-New-Crypto-Accounting-Rules", "currencies": [{"code": "BTC", "title": "Bitcoin", "slug": "bitcoin", "url": "https://cryptopanic.com/news/bitcoin/"}], "id": 20410587, "url": "https://cryptopanic.com/news/20410587/Donald-Trump-Bitcoin-Reserve-Plan-Aligns-with-FASBs-New-Crypto-Accounting-Rules", "created_at": "2024-12-16T05:52:45Z"}, {"kind": "news", "domain": "cointelegraph.com", "votes": {"negative": 0, "positive": 5, "important": 1, "liked": 3, "disliked": 0, "lol": 0, "toxic": 0, "saved": 0, "comments": 6}, "source": {"title": "CoinTelegraph", "region": "en", "domain": "cointelegraph.com", "path": null, "type": "feed"}, "title": "MicroStrategy\u2019s Saylor hints at first Bitcoin purchase above $100K", "published_at": "2024-12-16T00:10:00Z", "slug": "MicroStrategys-Saylor-hints-at-first-Bitcoin-purchase-above-100K", "currencies": [{"code": "BTC", "title": "Bitcoin", "slug": "bitcoin", "url": "https://cryptopanic.com/news/bitcoin/"}], "id": 20410109, "url": "https://cryptopanic.com/news/20410109/MicroStrategys-Saylor-hints-at-first-Bitcoin-purchase-above-100K", "created_at": "2024-12-16T00:10:00Z"}, {"kind": "news", "domain": "@BTC_Archive", "votes": {"negative": 0, "positive": 16, "important": 9, "liked": 10, "disliked": 0, "lol": 1, "toxic": 0, "saved": 3, "comments": 2}, "source": {"title": "X - btc_archive", "region": "en", "domain": "BTC_Archive", "path": "@btc_archive", "type": "twitter"}, "title": "JUST IN: \ud83c\uddf9\ud83c\udded Thailand to study the potential of #Bitcoin as legal tender.\n\nFormer Thailand Prime Minister says his son, the current PM, \"may assign the Ministry of Finance to study whether to accept Bitcoin or not\" as legal tender.", "published_at": "2024-12-15T13:09:19Z", "slug": "JUST-IN-Thailand-to-study-the-potential-of-Bitcoin-as-legal-tender-Former-Thailand-Prime-Minister-says-his-son-the-current-PM-may-assign-the-Ministry-of-Finance-to-study-whether-to-accept-Bitcoin-or-not-as-legal-tender", "currencies": [{"code": "BTC", "title": "Bitcoin", "slug": "bitcoin", "url": "https://cryptopanic.com/news/bitcoin/"}], "id": 20409028, "url": "https://cryptopanic.com/news/20409028/JUST-IN-Thailand-to-study-the-potential-of-Bitcoin-as-legal-tender-Former-Thailand-Prime-Minister-says-his-son-the-current-PM-may-assign-the-Ministry-of-Finance-to-study-whether-to-accept-Bitcoin-or-not-as-legal-tender", "created_at": "2024-12-15T13:09:19Z"}, {"kind": "news", "domain": "cryptopolitan.com", "votes": {"negative": 0, "positive": 10, "important": 5, "liked": 6, "disliked": 0, "lol": 1, "toxic": 0, "saved": 1, "comments": 0}, "source": {"title": "Feed - Cryptopolitan.Com", "region": "en", "domain": "cryptopolitan.com", "path": null, "type": "feed"}, "title": "US President Trump confirms Bitcoin reserve plans as Russia hints at crypto cold war", "published_at": "2024-12-15T11:23:16Z", "slug": "US-President-Trump-confirms-Bitcoin-reserve-plans-as-Russia-hints-at-crypto-cold-war", "currencies": [{"code": "BTC", "title": "Bitcoin", "slug": "bitcoin", "url": "https://cryptopanic.com/news/bitcoin/"}], "id": 20408767, "url": "https://cryptopanic.com/news/20408767/US-President-Trump-confirms-Bitcoin-reserve-plans-as-Russia-hints-at-crypto-cold-war", "created_at": "2024-12-15T11:23:16Z"}, {"kind": "news", "domain": "coinpaprika.com", "votes": {"negative": 0, "positive": 4, "important": 3, "liked": 3, "disliked": 0, "lol": 0, "toxic": 0, "saved": 2, "comments": 0}, "source": {"title": "coinpaprika", "region": "en", "domain": "coinpaprika.com", "path": null, "type": "feed"}, "title": "MicroStrategy Joins Nasdaq-100 Amid Bitcoin Surge", "published_at": "2024-12-14T12:44:57Z", "slug": "MicroStrategy-Joins-Nasdaq-100-Amid-Bitcoin-Surge", "currencies": [{"code": "BTC", "title": "Bitcoin", "slug": "bitcoin", "url": "https://cryptopanic.com/news/bitcoin/"}], "id": 20406621, "url": "https://cryptopanic.com/news/20406621/MicroStrategy-Joins-Nasdaq-100-Amid-Bitcoin-Surge", "created_at": "2024-12-14T12:44:57Z"}, {"kind": "news", "domain": "decrypt.co", "votes": {"negative": 0, "positive": 25, "important": 14, "liked": 18, "disliked": 0, "lol": 0, "toxic": 0, "saved": 4, "comments": 6}, "source": {"title": "Decrypt", "region": "en", "domain": "decrypt.co", "path": null, "type": "feed"}, "title": "Bitcoin Bull MicroStrategy Joins Nasdaq 100", "published_at": "2024-12-14T01:26:29Z", "slug": "Bitcoin-Bull-MicroStrategy-Joins-Nasdaq-100", "currencies": [{"code": "BTC", "title": "Bitcoin", "slug": "bitcoin", "url": "https://cryptopanic.com/news/bitcoin/"}], "id": 20405418, "url": "https://cryptopanic.com/news/20405418/Bitcoin-Bull-MicroStrategy-Joins-Nasdaq-100", "created_at": "2024-12-14T01:26:29Z"}, {"kind": "news", "domain": "coinpedia.org", "votes": {"negative": 0, "positive": 5, "important": 3, "liked": 3, "disliked": 0, "lol": 0, "toxic": 0, "saved": 2, "comments": 0}, "source": {"title": "coinpedia", "region": "en", "domain": "coinpedia.org", "path": null, "type": "feed"}, "title": "Senator Lummis & Scott Besent Meet to Discuss Strategic Bitcoin Reserve", "published_at": "2024-12-13T20:20:45Z", "slug": "Senator-Lummis-Scott-Besent-Meet-to-Discuss-Strategic-Bitcoin-Reserve", "currencies": [{"code": "BTC", "title": "Bitcoin", "slug": "bitcoin", "url": "https://cryptopanic.com/news/bitcoin/"}], "id": 20404557, "url": "https://cryptopanic.com/news/20404557/Senator-Lummis-Scott-Besent-Meet-to-Discuss-Strategic-Bitcoin-Reserve", "created_at": "2024-12-13T20:20:45Z"}, {"kind": "news", "domain": "coinpaprika.com", "votes": {"negative": 0, "positive": 16, "important": 15, "liked": 14, "disliked": 0, "lol": 0, "toxic": 0, "saved": 7, "comments": 0}, "source": {"title": "coinpaprika", "region": "en", "domain": "coinpaprika.com", "path": null, "type": "feed"}, "title": "Argentina Plans Bitcoin Freedom in 2025", "published_at": "2024-12-13T08:30:30Z", "slug": "Argentina-Plans-Bitcoin-Freedom-in-2025", "currencies": [{"code": "BTC", "title": "Bitcoin", "slug": "bitcoin", "url": "https://cryptopanic.com/news/bitcoin/"}], "id": 20401831, "url": "https://cryptopanic.com/news/20401831/Argentina-Plans-Bitcoin-Freedom-in-2025", "created_at": "2024-12-13T08:30:30Z"}, {"kind": "news", "domain": "cryptopolitan.com", "votes": {"negative": 0, "positive": 11, "important": 3, "liked": 8, "disliked": 0, "lol": 1, "toxic": 0, "saved": 0, "comments": 0}, "source": {"title": "Feed - Cryptopolitan.Com", "region": "en", "domain": "cryptopolitan.com", "path": null, "type": "feed"}, "title": "El Salvador partners with Argentina and plans digital asset deals with 25+countries", "published_at": "2024-12-12T21:10:18Z", "slug": "El-Salvador-partners-with-Argentina-and-plans-digital-asset-deals-with-25countries", "currencies": [{"code": "BTC", "title": "Bitcoin", "slug": "bitcoin", "url": "https://cryptopanic.com/news/bitcoin/"}], "id": 20400169, "url": "https://cryptopanic.com/news/20400169/El-Salvador-partners-with-Argentina-and-plans-digital-asset-deals-with-25countries", "created_at": "2024-12-12T21:10:18Z"}, {"kind": "news", "domain": "cryptobriefing.com", "votes": {"negative": 0, "positive": 5, "important": 3, "liked": 4, "disliked": 0, "lol": 0, "toxic": 0, "saved": 0, "comments": 0}, "source": {"title": "CryptoBriefing", "region": "en", "domain": "cryptobriefing.com", "path": null, "type": "feed"}, "title": "Texas House proposes bill to establish Strategic Bitcoin Reserve", "published_at": "2024-12-12T17:16:51Z", "slug": "Texas-House-proposes-bill-to-establish-Strategic-Bitcoin-Reserve", "currencies": [{"code": "BTC", "title": "Bitcoin", "slug": "bitcoin", "url": "https://cryptopanic.com/news/bitcoin/"}], "id": 20399474, "url": "https://cryptopanic.com/news/20399474/Texas-House-proposes-bill-to-establish-Strategic-Bitcoin-Reserve", "created_at": "2024-12-12T17:16:51Z"}, {"kind": "news", "domain": "decrypt.co", "votes": {"negative": 0, "positive": 4, "important": 3, "liked": 5, "disliked": 0, "lol": 0, "toxic": 0, "saved": 0, "comments": 1}, "source": {"title": "Decrypt", "region": "en", "domain": "decrypt.co", "path": null, "type": "feed"}, "title": "Texas Legislator Introduces Bill to Establish Bitcoin Strategic Reserve", "published_at": "2024-12-12T16:47:50Z", "slug": "Texas-Legislator-Introduces-Bill-to-Establish-Bitcoin-Strategic-Reserve", "currencies": [{"code": "BTC", "title": "Bitcoin", "slug": "bitcoin", "url": "https://cryptopanic.com/news/bitcoin/"}], "id": 20399348, "url": "https://cryptopanic.com/news/20399348/Texas-Legislator-Introduces-Bill-to-Establish-Bitcoin-Strategic-Reserve", "created_at": "2024-12-12T16:47:50Z"}, {"kind": "news", "domain": "square.binance.com", "votes": {"negative": 0, "positive": 10, "important": 5, "liked": 7, "disliked": 0, "lol": 0, "toxic": 0, "saved": 2, "comments": 0}, "source": {"title": "Binance Square", "region": "en", "domain": "square.binance.com", "path": null, "type": "feed"}, "title": "BlackRock's Bitcoin Spot ETF Overtakes Gold ETF in Size", "published_at": "2024-12-12T11:54:45Z", "slug": "BlackRocks-Bitcoin-Spot-ETF-Overtakes-Gold-ETF-in-Size", "currencies": [{"code": "BTC", "title": "Bitcoin", "slug": "bitcoin", "url": "https://cryptopanic.com/news/bitcoin/"}], "id": 20398003, "url": "https://cryptopanic.com/news/20398003/BlackRocks-Bitcoin-Spot-ETF-Overtakes-Gold-ETF-in-Size", "created_at": "2024-12-12T11:54:45Z"}, {"kind": "news", "domain": "atlas21.com", "votes": {"negative": 1, "positive": 6, "important": 3, "liked": 3, "disliked": 0, "lol": 1, "toxic": 0, "saved": 1, "comments": 1}, "source": {"title": "Atlas21", "region": "en", "domain": "atlas21.com", "path": null, "type": "feed"}, "title": "Kenyan firefighters add Bitcoin to their balance sheet", "published_at": "2024-12-12T10:53:13Z", "slug": "Kenyan-firefighters-add-Bitcoin-to-their-balance-sheet", "currencies": [{"code": "BTC", "title": "Bitcoin", "slug": "bitcoin", "url": "https://cryptopanic.com/news/bitcoin/"}], "id": 20397630, "url": "https://cryptopanic.com/news/20397630/Kenyan-firefighters-add-Bitcoin-to-their-balance-sheet", "created_at": "2024-12-12T10:53:13Z"}]}